Movebank Part II: tracking animal movement in time and space - Cabinet of Curiosity
…
## # A tibble: 3 x 2
##    year     n
##   <dbl> <int>
## 1 2009. 78506
## 2 2010. 51872
## 3 2011.   308

jackals %>%
  group_by(year, month_label) %>%
  summarise(n_individuals = n_distinct(local_identifier))

## # A tibble: 24 x 3
## # Groups:   year [?]
##     year month_label n_individuals
##    <dbl> <ord>               <int>
##  1 2009. Feb                     8
##  2 2009. Mar                    11
##  3 2009. Apr                    15
##  4 2009. May                    13
##  5 2009. Jun                    10
##  6 2009. Jul                    11
##  7 2009. Aug                     9
##  8 2009. Sep                     8
##  9 2009. Oct                     8
## 10 2009. Nov                     8
## # ... with 14 more rows
…
